<svg width="20" height="12" viewBox="0 0 20 12" fill="none" xmlns="http://www.w3.org/2000/svg">
<path d="M19.0864 11.6319L16.4176 11.669C16.4176 11.669 15.8418 11.7819 15.0889 11.2619C14.0902 10.5761 13.1487 8.79162 12.4143 9.02307C11.67 9.26024 11.6928 10.8661 11.6928 10.8661C11.6928 10.8661 11.6985 11.149 11.5285 11.3333C11.3442 11.5319 10.9828 11.5119 10.9828 11.5119H9.78692C9.78692 11.5119 7.14952 11.7305 4.825 9.30738C2.29332 6.66569 0.0559592 1.45232 0.0559592 1.45232C0.0559592 1.45232 -0.0754829 1.12372 0.0645317 0.955131C0.223119 0.769399 0.650305 0.763683 0.650305 0.763683L3.50773 0.749397C3.50773 0.749397 3.77633 0.796543 3.97063 0.939414C4.12922 1.05657 4.21923 1.27659 4.21923 1.27659C4.21923 1.27659 4.68071 2.44671 5.29362 3.50681C6.48803 5.57273 7.04237 6.02563 7.44812 5.80418C8.03961 5.48129 7.86245 2.88389 7.86245 2.88389C7.86245 2.88389 7.87388 1.94094 7.56528 1.5209C7.32525 1.19373 6.87378 1.09657 6.67662 1.07229C6.51517 1.05085 6.77806 0.676533 7.12095 0.507943C7.63528 0.256489 8.54395 0.242201 9.61691 0.252201C10.4527 0.260773 10.6942 0.312208 11.0199 0.392216C12.0057 0.630812 11.6714 1.5509 11.6714 3.75826C11.6714 4.46547 11.5442 5.45986 12.0529 5.78703C12.2729 5.92848 12.8087 5.80846 14.1445 3.5311C14.7803 2.45099 15.256 1.18229 15.256 1.18229C15.256 1.18229 15.3603 0.956557 15.5218 0.859406C15.6875 0.759397 15.9104 0.790827 15.9104 0.790827L18.9178 0.772255C18.9178 0.772255 19.8208 0.663674 19.9679 1.07371C20.1222 1.50233 19.6308 2.50385 18.4021 4.14259C16.3847 6.83428 16.1604 6.58426 17.8363 8.14155C19.4364 9.62884 19.7665 10.3518 19.8222 10.4432C20.4837 11.5447 19.0864 11.6319 19.0864 11.6319Z" fill="white"/>
</svg>
